{
 "actions": [],
 "allow_rename": 1,
 "autoname": "field:code",
 "creation": "2021-11-22 07:50:38.093191",
 "doctype": "DocType",
 "editable_grid": 1,
 "engine": "InnoDB",
 "field_order": [
  "code",
  "store_name",
  "area_manager"
 ],
 "fields": [
  {
   "fieldname": "code",
   "fieldtype": "Data",
   "in_list_view": 1,
   "label": "Code",
   "reqd": 1,
   "unique": 1
  },
  {
   "fieldname": "area_manager",
   "fieldtype": "Link",
   "in_list_view": 1,
   "label": "Area Manager",
   "options": "Area Manager"
  },
  {
   "fieldname": "store_name",
   "fieldtype": "Data",
   "in_list_view": 1,
   "label": "Store Name",
   "reqd": 1
  }
 ],
 "index_web_pages_for_search": 1,
 "links": [],
 "modified": "2021-11-22 08:52:22.637695",
 "modified_by": "Administrator",
 "module": "Army Navy POS Reports",
 "name": "POS Store",
 "naming_rule": "By fieldname",
 "owner": "Administrator",
 "permissions": [
  {
   "create": 1,
   "delete": 1,
   "email": 1,
   "export": 1,
   "print": 1,
   "read": 1,
   "report": 1,
   "role": "System Manager",
   "share": 1,
   "write": 1
  }
 ],
 "sort_field": "modified",
 "sort_order": "DESC",
 "title_field": "code",
 "track_changes": 1
}