{
 "add_total_row": 0,
 "columns": [],
 "creation": "2021-12-20 19:40:13.900338",
 "disable_prepared_report": 0,
 "disabled": 0,
 "docstatus": 0,
 "doctype": "Report",
 "filters": [],
 "idx": 0,
 "is_standard": "Yes",
 "json": "{}",
 "modified": "2021-12-21 15:46:18.615105",
 "modified_by": "Administrator",
 "module": "Army Navy POS Reports",
 "name": "Monthly Sales Target vs Actual",
 "owner": "Administrator",
 "prepared_report": 0,
 "query": "SELECT\r\n  dataset.*\r\nFROM (\r\n  SELECT 'January' AS `month`, 0 as `index`\r\n  UNION\r\n  SELECT 'February' AS `month`, 1\r\n  UNION\r\n  SELECT 'March' AS `month`, 2\r\n  UNION\r\n  SELECT 'April' AS `month`, 3\r\n  UNION\r\n  SELECT 'May' AS `month`, 4\r\n  UNION\r\n  SELECT 'June' AS `month`, 5\r\n  UNION\r\n  SELECT 'July' AS `month`, 6\r\n  UNION\r\n  SELECT 'August' AS `month`, 7\r\n  UNION\r\n  SELECT 'September' AS `month`, 8\r\n  UNION\r\n  SELECT 'October' AS `month`, 9\r\n  UNION\r\n  SELECT 'November' AS `month`, 10\r\n  UNION\r\n  SELECT 'December' AS `month`, 11\r\n) months INNER JOIN (\r\n  SELECT\r\n    *,\r\n    ROUND(`Inc(Dec):Currency:150` / `Target Sales:Currency:150` * 100) AS `%%:Percent:150`\r\n  FROM (\r\n    SELECT\r\n      *,\r\n      (`Actual Sales:Currency:150` - `Target Sales:Currency:150`) AS `Inc(Dec):Currency:150`\r\n    FROM (\r\n      SELECT\r\n        salesTarget.month AS `Month:Data:100`,\r\n        -COALESCE((\r\n          SELECT SUM(gross_amount)\r\n          FROM `tabDaily Sales Summary`\r\n          WHERE YEAR(`date`) = salesTarget.year AND MONTHNAME(`date`) = salesTarget.month\r\n        ), 0) AS `Actual Sales:Currency:150`,\r\n        SUM(salesTarget.sales_target) AS `Target Sales:Currency:150`\r\n      FROM\r\n        `tabSales Target` salesTarget\r\n      WHERE\r\n        salesTarget.year = %(year)s\r\n      GROUP BY salesTarget.month, salesTarget.year\r\n    ) b\r\n  ) a\r\n) dataset ON dataset.`Month:Data:100` = months.month\r\nORDER BY months.index ASC;\r\n",
 "ref_doctype": "Sales Target",
 "report_name": "Monthly Sales Target vs Actual",
 "report_type": "Query Report",
 "roles": []
}